{
    "attribution": "", 
    "description": "", 
    "center": "-83.7371,42.2804,11", 
    "bounds": "-83.8902,42.1644,-83.5689,42.3707", 
    "minzoom": "11", 
    "version": "1.0.0", 
    "template": "", 
    "maxzoom": "16", 
    "name": "AA_Current_Wards"
}